module black-snow.net/env-dump

go 1.22.1

require github.com/spf13/cobra v1.8.0 // direct

require (
	github.com/inconshreveable/mousetrap v1.1.0 // indirect
	github.com/spf13/pflag v1.0.5 // indirect
)
